<svg width="17" height="16" viewBox="0 0 17 16" fill="none" xmlns="http://www.w3.org/2000/svg">
<path d="M12.9723 7.17179C14.1554 7.35655 15.3588 8.37382 15.3588 9.62259C15.3588 10.0455 15.2466 10.4618 15.0378 10.8313C16.1491 11.183 17 12.158 17 13.3422C17 14.8915 15.5901 16 14.0903 16H2.90967C1.40993 16 0 14.8915 0 13.3422C0 12.158 0.853143 11.183 1.96223 10.8313C1.75343 10.4618 1.64118 10.0455 1.64118 9.62259C1.64118 8.41166 2.51004 7.43891 3.69995 7.23412C3.33848 6.51068 3.38339 5.46225 3.84588 4.327C4.57105 2.55513 6.07528 1.05259 7.68951 0.0353254C7.84667 -0.0648434 8.04873 0.0620371 8.03302 0.240115C8.02179 1.66251 8.11609 2.57961 8.42816 3.11385C9.02087 4.12221 10.8057 3.29192 12.1775 4.52956C12.9296 5.20849 13.2798 6.19237 12.9723 7.17179Z" fill="#CB4747"/>
</svg>
