<svg width="14" height="14" viewBox="0 0 14 14" fill="none" xmlns="http://www.w3.org/2000/svg">
<path d="M12.1498 0.594403L0.594354 12.1498C0.511813 12.2323 0.446337 12.3303 0.401662 12.4382C0.356988 12.546 0.333991 12.6616 0.333984 12.7783C0.333978 12.895 0.356961 13.0106 0.401623 13.1184C0.446285 13.2263 0.51175 13.3243 0.594281 13.4068C0.676812 13.4894 0.774793 13.5548 0.882629 13.5995C0.990464 13.6442 1.10604 13.6672 1.22277 13.6672C1.33949 13.6672 1.45507 13.6442 1.56291 13.5995C1.67075 13.5549 1.76874 13.4894 1.85128 13.4069L13.4067 1.85148C13.5734 1.6848 13.667 1.45872 13.6671 1.22299C13.6671 0.987258 13.5734 0.761174 13.4068 0.594476C13.3242 0.511935 13.2262 0.446459 13.1184 0.401784C13.0106 0.35711 12.895 0.334113 12.7783 0.334106C12.5425 0.334093 12.3165 0.427724 12.1498 0.594403Z" fill="#FFD01A"/>
<path d="M10.7039 13.6666C12.3403 13.6666 13.6668 12.34 13.6668 10.7036C13.6668 9.06727 12.3403 7.74072 10.7039 7.74072C9.06751 7.74072 7.74097 9.06727 7.74097 10.7036C7.74097 12.34 9.06751 13.6666 10.7039 13.6666Z" fill="#FFD01A"/>
<path d="M3.29618 6.25916C4.93256 6.25916 6.2591 4.93262 6.2591 3.29624C6.2591 1.65986 4.93256 0.333313 3.29618 0.333313C1.6598 0.333313 0.333252 1.65986 0.333252 3.29624C0.333252 4.93262 1.6598 6.25916 3.29618 6.25916Z" fill="#FFD01A"/>
</svg>
