<svg width="14" height="12" viewBox="0 0 14 12" fill="none" xmlns="http://www.w3.org/2000/svg">
<path d="M3.19869 5.50208C1.43604 5.50208 0.0098877 6.95514 0.0098877 8.75106C0.0098877 10.547 1.43604 12 3.19869 12C4.96135 12 6.3875 10.547 6.3875 8.75106C6.3875 6.95514 4.96135 5.50208 3.19869 5.50208ZM3.19869 9.91024C2.55773 9.91024 2.04496 9.38779 2.04496 8.73473C2.04496 8.08167 2.55773 7.55922 3.19869 7.55922C3.83966 7.55922 4.35243 8.08167 4.35243 8.73473C4.35243 9.38779 3.83966 9.91024 3.19869 9.91024Z" fill="white"/>
<path d="M12.8783 7.70612C12.9104 7.03674 12.9424 5.68163 12.6219 5.12653C12.4136 4.76735 11.4041 4.5551 10.3785 4.42449C10.3785 4.40816 10.3785 4.39184 10.3785 4.37551V2.57959C10.3785 2.41633 10.5067 2.30204 10.651 2.30204C10.8272 2.30204 10.9714 2.1551 10.9714 1.97551C10.9714 1.79592 10.8272 1.64898 10.651 1.64898C10.1382 1.64898 9.73758 2.07347 9.73758 2.57959V4.35918C8.85625 4.27755 8.10311 4.26123 8.10311 4.26123L6.66094 0H2.30237L1.10056 4.66939C0.748026 4.84898 0.411518 5.07755 0.107059 5.33878C-0.0211338 5.45306 -0.037158 5.66531 0.0750111 5.79592C0.18718 5.92653 0.395494 5.94286 0.523687 5.82857C1.24477 5.19184 2.15815 4.83265 3.1196 4.83265C5.28286 4.83265 7.04552 6.62857 7.04552 8.83265C7.04552 8.93061 7.04552 9.0449 7.02949 9.14286C7.02949 9.24082 7.04552 9.32245 7.10961 9.38776C7.17371 9.45306 7.25383 9.48571 7.34998 9.48571H9.49721C9.49721 9.55102 9.48119 9.61633 9.48119 9.68163C9.48119 10.9551 10.4907 11.9837 11.7406 11.9837C12.9905 11.9837 14 10.9551 14 9.68163C14 8.84898 13.5513 8.09796 12.8783 7.70612ZM2.46261 3.52653L3.13562 0.865306H5.76359L6.72503 3.52653H2.46261ZM11.7566 10.5143C11.3079 10.5143 10.9394 10.1388 10.9394 9.68163C10.9394 9.22449 11.3079 8.84898 11.7566 8.84898C12.2053 8.84898 12.5738 9.22449 12.5738 9.68163C12.5578 10.1551 12.2053 10.5143 11.7566 10.5143Z" fill="white"/>
</svg>
