<svg width="10" height="18" viewBox="0 0 10 18" fill="none" xmlns="http://www.w3.org/2000/svg">
<path d="M9.69697 12.1212C9.69697 9.69697 8.09762 8.47838 5.45422 7.63604C4.05333 7.19063 3.23232 6.87192 3.23232 5.9798C3.23232 5.08768 3.95572 4.44444 4.84848 4.44444C5.74125 4.44444 6.46465 5.16784 6.46465 6.06061V6.14141C6.46465 6.31984 6.60945 6.46465 6.78788 6.46465H9.37374C9.55216 6.46465 9.69826 6.31984 9.68598 6.14141C9.54699 4.02748 8.04978 2.28719 6.06061 1.7739V0.323232C6.06061 0.144808 5.9158 0 5.73737 0H3.9596C3.78117 0 3.63636 0.144808 3.63636 0.323232V1.7364C1.54634 2.14626 0 3.6118 0 5.65657C0 8.08081 1.64137 9.3078 4.24275 10.1417C5.45487 10.5458 6.46465 10.9059 6.46465 11.798C6.46465 12.6901 5.74125 13.3333 4.84848 13.3333C3.95572 13.3333 3.23232 12.6099 3.23232 11.7172V11.6364C3.23232 11.4579 3.08752 11.3131 2.90909 11.3131H0.323232C0.144808 11.3131 -0.0012928 11.4579 0.01099 11.6364C0.14998 13.7503 1.64719 15.4906 3.63636 16.0039V17.4545C3.63636 17.633 3.78117 17.7778 3.9596 17.7778H5.73737C5.9158 17.7778 6.06061 17.633 6.06061 17.4545V16.0414C8.15063 15.6315 9.69697 14.166 9.69697 12.1212Z" fill="#47CB48"/>
</svg>
